{
	"1m": {
		"sh" : [123123,23223,23423,234233,574244],
		"st" : [12,234,34,43,34],
		"amc" : [45,34,34,23,34]
	},
	"3m": {
		"sh" : [123123,23223,23423,234233,574244],
		"st" : [12,234,34,43,34],
		"amc" : [45,34,34,23,34]
	},
	"6m": {
		"sh" : [123123,23223,23423,234233,574244],
		"st" : [12,234,34,43,34],
		"amc" : [45,34,34,23,34]
	},
	"1y": {
		"sh" : [123123,23223,23423,234233,574244],
		"st" : [12,234,34,43,34],
		"amc" : [45,34,34,23,34]
	},
	"2y": {
		"sh" : [123123,23223,23423,234233,574244],
		"st" : [12,234,34,43,34],
		"amc" : [45,34,34,23,34]
	},
	"3y": {
		"sh" : [123123,23223,23423,234233,574244],
		"st" : [12,234,34,43,34],
		"amc" : [45,34,34,23,34]
	},
	"5y": {
		"sh" : [123123,23223,23423,234233,574244],
		"st" : [12,234,34,43,34],
		"amc" : [45,34,34,23,34]
	}
}