{
	"data" : [
		{"id":27,"sh":[10034,10024,10045,10056,10067]},
		{"id":28,"sh":[11034,11024,11045,11056,11067]},
		{"id":27,"sh":[10034,10024,10045,10056,10067]},
		{"id":28,"sh":[11034,11024,11045,11056,11067]},
		{"id":27,"sh":[10034,10024,10045,10056,10067]},
		{"id":28,"sh":[11034,11024,11045,11056,11067]},
		{"id":27,"sh":[10034,10024,10045,10056,10067]},
		{"id":28,"sh":[11034,11024,11045,11056,11067]},
		{"id":27,"sh":[10034,10024,10045,10056,10067]},
		{"id":28,"sh":[11034,11024,11045,11056,11067]},
		{"id":27,"sh":[10034,10024,10045,10056,10067]},
		{"id":28,"sh":[11034,11024,11045,11056,11067]},
		{"id":27,"sh":[10034,10024,10045,10056,10067]},
		{"id":28,"sh":[11034,11024,11045,11056,11067]},
		{"id":27,"sh":[10034,10024,10045,10056,10067]},
		{"id":28,"sh":[11034,11024,11045,11056,11067]}
	]
}